{
    "global_title": "GTX TITAN X L2 cache benchmark results",
    "xlabel": "Number of thread blocks",
    "ylabel": "Throughput (GB/s)",
    "type": "multiline",
    "format": ["-s"],
    "color": ["#727272", "#cd7058", "#9e66ab", "#f9a65a", "#599ad3", "#79c36a"],
    "align": "center",
    "horizontal_lines_major": "True",
    "horizontal_lines_minor": "True",
    "subplots": {
        "position": [231, 232, 233],
        "title": ["float", "float2", "float4"],
        "ydata": [
            {
                "row": 2,
                "type": "float",
                "transform": "First divide row 2 by 1000 to convert from ms to s, then divide the amount of memory moved (row 5) by the amount of s to get the B/s. Finally divide by 1000000000 to get the amount of GB/s.",
                "transform": ["divide_this", 1000, "divide_that_row", 5, "divide_this", 1000000000]
            },
            {
                "row": 3,
                "type": "float",
                "transform": "First divide row 3 by 1000 to convert from ms to s, then divide the amount of memory moved (row 5) by the amount of s to get the B/s. Finally divide by 1000000000 to get the amount of GB/s.",
                "transform": ["divide_this", 1000, "divide_that_row", 5, "divide_this", 1000000000]
            },
            {
                "row": 4,
                "type": "float",
                "transform": "First divide row 4 by 1000 to convert from ms to s, then divide the amount of memory moved (row 5) by the amount of s to get the B/s. Finally divide by 1000000000 to get the amount of GB/s.",
                "transform": ["divide_this", 1000, "divide_that_row", 5, "divide_this", 1000000000]
            }
        ]
    },
    "xdata": {
        "row": 1,
        "type": "int"
    },
    "linedata": {
        "row": 0,
        "type": "int"
    },
    "xlim": [0,25],
    "global_legend": {
        "loc": "center",
        "bbox_x": 0.5,
        "bbox_y": 0.47,
        "title": "Threads/block",
        "ncol": 6
    },
    "adjust_custom": [0.04, 0.13, 0.98, 0.925, 0.2, 0.25],
    "labels": ["32", "64", "128", "256", "512", "1024"],
    "csv": "block_size_x,grid_div_x,vector_1_time(ms),vector_2_time(ms),vector_4_time(ms),mem_moved(bytes, calculated as (array_size + block_size_x * grid_div_x) * 4, with array_size being 2100510720)",
    "csv": [
        "32,1,10748.047912597656,6579.290710449219,4098.958943684896,5903351936",
        "64,1,5379.440114339192,3287.338836669922,2042.339884440104,5902565632",
        "128,1,2908.1944783528647,1782.4857432047527,1101.1803894042969,5900993024",
        "256,1,1672.758977254232,949.0283101399739,545.027587890625,5897847808",
        "512,1,900.1216888427734,478.308235168457,244.80399322509766,5891557376",
        "1024,1,437.0134582519532,218.62688954671222,117.36873881022134,5878976512",
        "32,2,5420.641428629557,3298.7135314941406,2068.1484171549478,5902565632",
        "64,2,2707.020741780599,1648.9488372802734,1031.7262674967446,5900993024",
        "128,2,1440.425890604655,894.6979217529297,550.5567118326824,5897847808",
        "256,2,837.8634134928386,475.4807319641114,272.7695999145508,5891557376",
        "512,2,451.0161717732748,241.0153490702311,121.39143753051758,5878976512",
        "1024,2,227.27244440714517,116.16572570800781,66.61349105834961,5853814784",
        "32,3,3610.583536783854,2207.175710042318,1374.5569763183594,5901779328",
        "64,3,1801.3592478434246,1100.0755411783855,686.4492441813151,5899420416",
        "128,3,961.134915669759,596.0665588378906,366.3735605875651,5894702592",
        "256,3,558.3655967712402,315.8809382120768,181.19246927897134,5885266944",
        "512,3,305.29604466756183,160.79465611775714,82.02639897664389,5866395648",
        "1024,3,157.13466898600262,83.19713020324707,47.99612871805826,5828653056",
        "32,4,2713.166742960612,1647.8631744384766,1031.6259765625,5900993024",
        "64,4,1350.3551228841145,822.2615534464518,519.7950083414713,5897847808",
        "128,4,720.8979848225912,446.7179985046387,271.31385548909503,5891557376",
        "256,4,417.57683308919275,236.51019032796225,133.55908966064453,5878976512",
        "512,4,244.8152364095052,124.89463615417482,66.7111873626709,5853814784",
        "1024,4,118.12922541300455,62.66453234354654,38.62705993652344,5803491328",
        "32,5,2211.3611653645835,1319.1625569661458,851.6300303141276,5900206720",
        "64,5,1096.966672261556,657.581319173177,426.52265167236334,5896275200",
        "128,5,583.8357531229655,357.32583745320636,230.43308258056638,5888412160",
        "256,5,341.1942481994629,188.69967015584308,111.62163035074872,5872686080",
        "512,5,202.56042671203613,102.92035102844238,58.92739295959473,5841233920",
        "1024,5,96.10902404785156,50.056854248046875,32.62454287211101,5778329600",
        "32,6,1802.0496622721353,1098.0642649332683,688.0842437744141,5899420416",
        "64,6,899.7260157267252,548.1469014485676,342.5145263671875,5894702592",
        "128,6,478.4519233703613,297.1204020182292,179.8315111796061,5885266944",
        "256,6,289.6455726623535,158.0354143778483,87.87451871236165,5866395648",
        "512,6,166.2879441579183,85.90031878153482,47.53373718261719,5828653056",
        "1024,6,78.8774808247884,41.35640462239583,27.99510447184245,5753167872",
        "32,7,1543.9375254313152,935.6657257080077,591.5031585693359,5898634112",
        "64,7,771.2070083618164,466.7953707377116,294.0126469930013,5893129984",
        "128,7,409.36158243815106,256.2381935119629,153.7819938659668,5882121728",
        "256,7,257.7973931630453,138.22218386332193,74.71147664388022,5860105216",
        "512,7,139.61705780029297,73.31569226582845,40.60090637207031,5816072192",
        "1024,7,66.28988774617514,35.91048367818196,25.42966461181641,5728006144",
        "32,8,1350.4492085774739,822.6449025472004,517.0400136311848,5897847808",
        "64,8,674.6796442667643,410.4592030843099,256.93833923339844,5891557376",
        "128,8,358.06484603881836,221.73148663838703,134.30026499430338,5878976512",
        "256,8,241.99521001180014,122.29318237304689,66.94428825378418,5853814784",
        "512,8,124.36126136779787,62.42920557657877,35.55068906148274,5803491328",
        "1024,8,57.12491671244304,30.92995325724284,23.883541742960613,5702844416",
        "32,9,1198.4386088053386,730.345319112142,460.3017120361328,5897061504",
        "64,9,597.1030667622884,364.87682088216144,227.76627349853516,5889984768",
        "128,9,318.4378910064697,196.61035219828287,117.82658386230469,5875831296",
        "256,9,216.96033986409503,110.09007008870444,60.12434005737305,5847524352",
        "512,9,105.96435419718424,54.68592007954915,32.38278516133626,5790910464",
        "1024,9,49.83784548441568,28.433013280232746,22.96670913696289,5677682688",
        "32,10,1096.7587636311848,656.9221928914388,427.6960042317708,5896275200",
        "64,10,546.0329678853353,327.89701207478845,212.97788747151694,5888412160",
        "128,10,291.4050769805908,176.88876914978027,112.42371304829915,5872686080",
        "256,10,200.79979769388834,99.95169830322266,56.76460901896158,5841233920",
        "512,10,94.83173179626465,48.04937553405762,30.25378163655599,5778329600",
        "1024,10,45.38246409098308,26.333590189615883,22.241844813028973,5652520960",
        "32,11,995.8781458536783,596.7116114298502,375.0075327555338,5895488896",
        "64,11,487.6691080729167,297.5195821126302,185.85282135009766,5886839552",
        "128,11,268.5983486175537,160.6509215037028,96.21341896057129,5869540864",
        "256,11,181.4192632039388,90.95116678873697,49.15402539571127,5834943488",
        "512,11,84.58402252197266,43.5294303894043,27.3385066986084,5765748736",
        "1024,11,42.40468533833821,24.857088724772137,21.320554733276364,5627359232",
        "32,12,899.6036911010742,547.7768452962239,342.6349385579427,5894702592",
        "64,12,446.80117162068683,273.3011258443197,170.3803939819336,5885266944",
        "128,12,251.58283297220865,147.83905665079754,88.17351468404134,5866395648",
        "256,12,166.46060625712076,83.32284800211589,44.67050743103027,5828653056",
        "512,12,76.78198560078938,39.51485888163249,26.568501790364582,5753167872",
        "1024,12,39.30022303263347,24.91915766398112,21.415008544921875,5602197504",
        "32,13,830.6135711669922,505.82933553059894,328.6408920288086,5893916288",
        "64,13,411.80629094441736,251.775577545166,162.51010131835938,5883694336",
        "128,13,237.6319255828857,136.6101531982422,82.62790362040201,5863250432",
        "256,13,151.66832288106283,75.78220812479655,41.504032135009766,5822362624",
        "512,13,69.87273534138997,36.19169108072917,24.87359046936035,5740587008",
        "1024,13,36.05206489562988,23.48658116658529,20.972650527954105,5577035776",
        "32,14,770.8486251831055,466.2594515482585,294.06138102213544,5893129984",
        "64,14,381.96728897094727,231.50071970621747,145.3999163309733,5882121728",
        "128,14,231.90503756205243,130.67894490559897,74.65438969930013,5860105216",
        "256,14,140.06379381815594,71.06405258178711,37.762356440226235,5816072192",
        "512,14,64.51799456278484,34.108128229777016,24.487594604492188,5728006144",
        "1024,14,34.32865079243978,23.349163055419922,21.054463704427082,5551874048",
        "32,15,755.2219123840332,437.9823710123698,286.90187581380206,5892343680",
        "64,15,369.3911577860514,217.3992074330648,141.65397135416666,5880549120",
        "128,15,233.66381327311197,121.84956868489584,73.51028188069661,5856960000",
        "256,15,133.20941797892252,64.52553621927898,37.09930610656738,5809781760",
        "512,15,60.80175145467122,31.65821901957194,23.512010574340824,5715425280",
        "1024,15,32.6517448425293,22.43196741739909,21.142677307128906,5526712320",
        "32,16,668.3590443929036,408.0464553833008,257.65722910563153,5891557376",
        "64,16,334.9990743001302,203.51690991719565,125.62889353434247,5878976512",
        "128,16,220.35833613077799,117.25574175516765,66.15638415018717,5853814784",
        "256,16,123.93385314941408,60.018741607666016,32.836094538370766,5803491328",
        "512,16,55.28168233235678,29.32992998758952,22.853727340698246,5702844416",
        "1024,16,30.64120483398438,22.238794962565105,21.22343571980794,5501550592",
        "32,17,858.0910085042318,546.2516911824545,355.12120819091797,8321583232",
        "64,17,427.84686787923175,270.3875261942546,174.10462697347006,8308216064",
        "128,17,249.8746147155762,156.00287946065268,89.56319999694824,8281481728",
        "256,17,157.24948628743488,78.79224840799967,44.43484687805176,8228013056",
        "512,17,77.92207082112631,40.00977007548015,31.81471951802572,8121075712",
        "1024,17,41.68338267008464,31.034602483113606,29.009248097737633,7907201024",
        "32,18,800.1582794189453,516.1216176350911,335.4071273803711,8320796928",
        "64,18,405.99480183919275,255.11848576863608,163.94208399454754,8306643456",
        "128,18,238.95609156290692,149.70672861735028,85.1788469950358,8278336512",
        "256,18,147.9848976135254,74.12048085530598,42.13978576660156,8221722624",
        "512,18,73.39598846435547,38.510922749837235,31.21916834513346,8108494848",
        "1024,18,40.40152486165365,30.412736256917317,28.913462320963543,7882039296",
        "32,19,766.9210052490234,487.35449473063153,317.07723236083984,8320010624",
        "64,19,385.4138043721517,241.09908548990884,154.57591501871747,8305070848",
        "128,19,229.696662902832,143.64462916056314,80.35383542378744,8275191296",
        "256,19,139.21558252970377,69.24566141764322,40.480649312337235,8215432192",
        "512,19,69.15627733866374,37.301069259643555,31.08381843566894,8095913984",
        "1024,19,39.58017222086588,30.25727907816569,29.060778935750324,7856877568",
        "32,20,758.5834070841472,463.4010480244955,300.48780314127606,8319224320",
        "64,20,380.3487091064453,228.89590708414713,146.27257664998373,8303498240",
        "128,20,222.4198112487793,137.2958532969157,76.36553446451823,8272046080",
        "256,20,129.47482681274414,65.0746873219808,39.39396031697592,8209141760",
        "512,20,60.33875274658203,36.30464998881021,34.15852864583333,8083333120",
        "1024,20,39.02321116129558,33.05043284098308,29.25930658976237,7831715840",
        "32,21,693.7086334228516,438.09335072835285,285.96819941202796,8318438016",
        "64,21,356.94849268595374,217.56988016764325,139.0278180440267,8301925632",
        "128,21,214.1085319519043,135.14699363708496,72.69520950317383,8268900864",
        "256,21,123.5629857381185,62.947647730509445,37.15313021341959,8202851328",
        "512,21,62.90485382080078,35.899934132893875,30.49537086486816,8070752256",
        "1024,21,38.70185852050782,29.865546544392906,28.823550542195637,7806554112",
        "32,22,640.397684733073,405.3459701538086,254.1164830525716,8065747712",
        "64,22,334.3745994567871,201.3148511250814,124.40509668986002,8048449024",
        "128,22,199.52668380737305,125.48295974731447,66.23445320129395,8013851648",
        "256,22,113.46781794230144,57.732647577921554,35.24956830342611,7944656896",
        "512,22,60.52576955159505,34.090707778930664,29.330335617065426,7806267392",
        "1024,22,36.65462493896484,29.391050974527996,28.30755170186361,7529488384",
        "32,23,613.514762878418,387.2588144938151,243.1163152058919,8064961408",
        "64,23,323.68706003824866,193.33295694986978,118.96830876668295,8046876416",
        "128,23,192.4821434020996,119.55926577250162,62.96387036641438,8010706432",
        "256,23,107.48686854044597,54.84560012817383,34.342229207356766,7938366464",
        "512,23,59.12138684590657,33.47451718648274,28.935573577880856,7793686528",
        "1024,23,36.17618179321288,28.803510030110676,28.266304651896156,7504326656",
        "32,24,587.9332962036133,370.16951878865564,233.08938598632812,8064175104",
        "64,24,316.8262799580892,188.72463035583496,114.2744255065918,8045303808",
        "128,24,186.9177729288737,118.54059727986653,60.43539110819498,8007561216",
        "256,24,102.78507995605467,53.9070307413737,34.592287699381515,7932076032",
        "512,24,56.979285558064774,33.22664451599121,30.720523834228516,7781105664",
        "1024,24,36.617546081542976,29.991327921549477,28.17149925231934,7479164928",
        "32,25,580.8659655253093,360.67416508992517,245.55357360839847,8063388800",
        "64,25,288.7265510559082,180.87817764282227,118.94550704956055,8043731200",
        "128,25,196.42431259155273,98.19051742553712,60.244428634643555,8004416000",
        "256,25,96.3084551493327,50.00391324361166,34.92121887207031,7925785600",
        "512,25,46.7121836344401,29.665332794189457,27.717258453369137,7768524800",
        "1024,25,16.84908676147461,13.607337951660153,27.71166928609212,7454003200",
        "32,26,583.7136917114258,376.00043869018555,233.85580825805667,8062602496",
        "64,26,317.53692118326825,190.41311645507812,112.5004653930664,8042158592",
        "128,26,195.30242284138998,105.04201634724934,56.06027857462564,8001270784",
        "256,26,95.7900276184082,49.63083839416504,34.51057306925456,7919495168",
        "512,26,51.95716094970703,31.94521649678548,28.617376963297524,7755943936",
        "1024,26,33.680928548177086,27.653909047444664,28.222058614095054,7428841472",
        "32,27,614.026180267334,380.6362113952637,239.20598983764646,8509836672",
        "64,27,353.1685358683268,191.66779327392578,114.07027053833008,8488606464",
        "128,27,209.06513214111328,103.98052342732747,57.165238062540695,8446146048",
        "256,27,95.60030873616535,50.407541275024414,36.19969050089517,8361225216",
        "512,27,49.07091140747071,34.17501894632976,30.490720748901367,8191383552",
        "1024,27,34.448168436686196,29.89457066853841,29.73833719889323,7851700224",
        "32,28,592.0541178385416,369.03332901000977,229.33021036783856,8509050368",
        "64,28,345.91279220581055,189.2579803466797,109.72787475585938,8487033856",
        "128,28,202.08758926391602,102.05925369262697,54.71567980448404,8443000832",
        "256,28,92.54102325439453,48.82262484232585,36.302827199300125,8354934784",
        "512,28,47.77613830566407,35.69876416524252,33.21523157755534,8178802688",
        "1024,28,34.70433044433594,31.865866978963215,29.293130874633786,7826538496",
        "32,29,571.8804410298666,354.4177411397298,221.7166951497396,8508264064",
        "64,29,338.2146682739258,180.7797648111979,105.24262364705402,8485461248",
        "128,29,193.60909907023114,95.78664461771646,53.034902572631836,8439855616",
        "256,29,89.56086476643881,47.43050702412923,35.468245824178055,8348644352",
        "512,29,47.215073903401695,33.85147730509439,30.528490702311196,8166221824",
        "1024,29,34.904764811197914,29.73594792683919,29.588362375895183,7801376768",
        "32,30,560.262555440267,342.457576751709,227.1057612101237,8507477760",
        "64,30,337.41165033976233,176.56599299112955,107.67941284179688,8483888640",
        "128,30,189.2464942932129,92.82653681437174,53.38554636637369,8436710400",
        "256,30,87.90118408203125,45.41518910725911,36.39390055338542,8342353920",
        "512,30,46.415934244791664,33.500607808430985,30.53514607747396,8153640960",
        "1024,30,34.799894968668625,29.619839986165363,29.859263737996418,7776215040",
        "32,31,435.12585576375324,266.7229347229004,175.78884251912433,6814044032",
        "64,31,264.6844965616862,139.9213415781657,82.70603688557944,6789668608",
        "128,31,149.50461705525714,72.88597424825032,40.87452824910481,6740917760",
        "256,31,66.89085833231609,36.20648511250813,27.875574111938477,6643416064",
        "512,31,36.3879369099935,26.601738611857098,24.21818669637044,6448412672",
        "1024,31,27.646505355834957,23.470943450927738,23.52695528666178,6058405888",
        "32,32,422.2561670939127,258.1316274007161,169.81438954671225,6813257728",
        "64,32,263.96884791056317,139.64334360758463,80.83308982849121,6788096000",
        "128,32,145.15224393208823,70.79017512003581,42.24958801269531,6737772544",
        "256,32,65.62656911214192,34.616757710774735,28.121397018432617,6637125632",
        "512,32,35.22135480244954,27.28648503621419,25.497770309448246,6435831808",
        "1024,32,28.33122189839681,24.892628987630207,23.38739331563314,6033244160",
        "32,33,416.4757957458496,249.6879094441732,163.77335357666016,6812471424",
        "64,33,258.87462043762207,133.60839335123697,77.90358479817709,6786523392",
        "128,33,142.19146792093912,67.98529116312663,38.656661351521805,6734627328",
        "256,33,62.810579935709626,34.56473668416341,27.47021929423014,6630835200",
        "512,33,35.25698216756186,26.493408203125004,24.57736396789551,6423250944",
        "1024,33,27.326271692911785,23.645909627278648,23.47270393371582,6008082432",
        "32,34,397.1574719746908,242.9758504231771,159.2500025431315,6811685120",
        "64,34,250.8568382263184,131.0692284901937,76.55652173360188,6784950784",
        "128,34,131.28073183695477,66.18719800313313,37.71122169494629,6731482112",
        "256,34,60.33977508544922,33.30680465698242,27.187796910603844,6624544768",
        "512,34,34.460267384847,25.979370117187504,24.222293853759766,6410670080",
        "1024,34,27.837140401204426,23.587647755940754,23.344266255696617,5982920704",
        "32,35,409.59397252400714,250.25342432657877,163.6542599995931,7228789120",
        "64,35,260.81994883219403,135.54578717549643,77.99353726704915,7201268480",
        "128,35,134.47213745117188,67.47343063354492,38.59135055541992,7146227200",
        "256,35,61.60569763183594,34.85564867655437,28.880853017171223,7036144640",
        "512,35,36.44948323567708,27.85824012756348,25.640053431193035,6815979520",
        "1024,35,29.645301818847656,25.259082158406574,24.838356018066403,6375649280",
        "32,36,395.3093605041504,241.66277694702148,150.19498825073242,7228002816",
        "64,36,255.49948946634927,130.56319999694824,73.15640513102213,7199695872",
        "128,36,129.32291221618652,64.34415944417317,36.814089457194015,7143081984",
        "256,36,59.94389470418295,33.638132095336914,27.662485758463543,7029854208",
        "512,36,35.10304133097331,26.65404764811198,25.27126375834147,6803398656",
        "1024,36,28.36061986287435,25.01132837931315,25.08155695597331,6350487552",
        "32,37,384.2186915079753,235.31602350870767,145.53343200683594,7227216512",
        "64,37,249.536828994751,127.31218401590984,70.70008405049643,7198123264",
        "128,37,124.42603619893391,62.05124409993489,35.871136347452804,7139936768",
        "256,37,57.21731376647949,33.565909703572586,28.086164474487305,7023563776",
        "512,37,35.355712890625,27.446260452270504,25.646325429280598,6790817792",
        "1024,37,28.675819396972656,25.057183583577476,24.92614491780599,6325325824",
        "32,38,374.76452382405597,228.7613677978516,141.7075538635254,7226430208",
        "64,38,245.848264058431,124.89915911356609,69.19053713480632,7196550656",
        "128,38,121.08353042602539,60.21332359313965,35.39268430074056,7136791552",
        "256,38,55.633845011393234,32.761098861694336,27.65655517578125,7017273344",
        "512,38,34.79852930704753,26.861759185791012,25.725823720296226,6778236928",
        "1024,38,28.160320281982422,25.053003946940102,25.03108278910319,6300164096",
        "32,39,371.0742886861166,224.99823506673178,139.0058911641439,7304778624",
        "64,39,243.1638978322347,122.90102259318034,67.78909873962402,7274112768",
        "128,39,118.01433817545573,59.14126014709473,34.85482724507649,7212781056",
        "256,39,54.57220268249512,32.72130012512207,27.923158009847004,7090117632",
        "512,39,34.772703170776374,27.324565251668293,25.97211647033691,6844790784",
        "1024,39,28.752960205078125,25.57847468058268,25.058432896931965,6354137088",
        "32,40,371.64028040568036,219.95904541015625,138.96043904622397,7303992320",
        "64,40,246.61723645528158,121.17028045654295,69.2968635559082,7272540160",
        "128,40,118.08387883504231,57.19997723897299,35.219830195109054,7209635840",
        "256,40,54.82557614644368,32.03993479410807,27.593280792236325,7083827200",
        "512,40,34.43212827046713,26.772244135538735,26.36092694600423,6832209920",
        "1024,40,28.367425282796226,25.522806167602536,25.08676147460938,6328975360",
        "32,41,357.86906814575195,214.51778030395508,128.15792973836264,7303206016",
        "64,41,234.52544720967612,118.24504661560059,63.46106656392415,7270967552",
        "128,41,111.69991874694826,55.78259976704915,33.395263036092125,7206490624",
        "256,41,51.710377375284835,32.270751953125,27.804959615071613,7077536768",
        "512,41,34.43419392903647,27.02644220987956,26.00274213155111,6819629056",
        "1024,41,27.459166208902992,25.40136464436849,25.170399347941082,6303813632",
        "32,42,350.04809697469074,214.98772366841635,125.3769760131836,7302419712",
        "64,42,230.33435757954913,122.70438321431477,62.54521306355794,7269394944",
        "128,42,108.53585751851399,57.409963607788086,32.94215520222981,7203345408",
        "256,42,50.40142885843913,32.14049021402995,27.721632003784183,7071246336",
        "512,42,33.652638117472335,27.351050694783527,25.55737559000651,6807048192",
        "1024,42,28.175743103027344,25.214666366577152,25.051616032918293,6278651904",
        "32,43,376.3901964823405,225.68542607625324,137.30753199259442,7987058048",
        "64,43,211.0763308207194,126.97713406880698,67.41519037882487,7953246976",
        "128,43,112.66080983479819,58.969133377075195,35.87875302632649,7885624832",
        "256,43,54.63290786743163,14.775903065999351,30.233898798624676,7750380544",
        "512,43,36.94980112711589,29.23769696553548,28.301151911417644,7479891968",
        "1024,43,25.044460296630852,27.667936325073242,27.667252858479817,6938914816",
        "32,44,370.35302352905273,220.9309107462565,134.34906387329102,7986271744",
        "64,44,207.40812047322592,124.37307039896648,65.86008834838867,7951674368",
        "128,44,111.19035466512045,57.4822940826416,35.175551096598305,7882479616",
        "256,44,54.2274538675944,34.12336031595866,30.688692728678383,7744090112",
        "512,44,36.33976618448893,29.61908213297526,29.37040074666341,7467311104",
        "1024,44,25.962978363037102,27.50835164388021,27.572254816691082,6913753088",
        "32,45,373.2914733886719,224.5518684387207,135.92280960083008,7985485440",
        "64,45,241.07426325480142,131.1894702911377,66.91833305358887,7950101760",
        "128,45,111.73863474527994,60.26029713948569,35.51046435038249,7879334400",
        "256,45,54.63471984863282,34.48678398132324,30.88430913289388,7737799680",
        "512,45,36.31764221191406,29.345332463582356,28.441012700398762,7454730240",
        "1024,45,23.083071390787765,27.795115152994793,27.874698638916016,6888591360",
        "32,46,305.29648208618164,198.1251513163249,127.85823059082031,7984699136",
        "64,46,159.52322896321616,96.18875376383464,61.94507726033528,7948529152",
        "128,46,104.38690312703451,52.52492841084798,34.227711995442704,7876189184",
        "256,46,53.03793080647787,32.80554517110189,30.338954925537113,7731509248",
        "512,46,21.462730407714844,16.101834615071613,28.333494186401364,7442149376",
        "1024,46,13.722026824951172,13.939093271891277,27.671680450439457,6863429632",
        "32,47,332.7755661010742,208.26514307657877,139.3032455444336,8547538816",
        "64,47,213.41267522176105,99.95283190409343,67.48022206624348,8510582528",
        "128,47,113.70892969767252,54.55629666646321,37.574378331502274,8436669952",
        "256,47,56.4623794555664,35.38605944315593,31.804556528727215,8288844800",
        "512,47,23.648128509521484,17.136724472045902,30.533855438232425,7993194496",
        "1024,47,12.61048380533854,15.14654922485352,29.341140111287437,7401893888",
        "32,48,384.34874725341797,227.03974533081052,135.54803848266602,8546752512",
        "64,48,241.94624710083008,132.07602310180664,67.01303354899089,8509009920",
        "128,48,111.31440989176431,59.739990234375,41.18557802836101,8433524736",
        "256,48,61.043468475341804,38.80071512858072,34.539660771687835,8282554368",
        "512,48,41.79904810587565,32.6527779897054,29.85737609863281,7980613632",
        "1024,48,37.26391474405925,29.507680892944336,29.46714719136556,7376732160"
    ]
}
