{
    "xlabel": "Configurations (block_size_x,block_size_y)",
    "type": "bar",
    "align": "center",
    "horizontal_lines_major": "True",
    "horizontal_lines_minor": "True",
    "subplots": {
        "position": [222, 221],
        "title": ["Theoretical occupancy", "Performance"],
        "color": ["#cd7058", "#79c36a"],
        "ylabel": ["Theoretical occupancy (%)", "GFLOPS"],
        "ydata": [
            {
                "row": 2,
                "type": "float"
            },
            {
                "row": 3,
                "type": "float",
                "transform": "First divide row 5 by 1000 to convert from ms to s, then divide the amount of arithmetic instructions ((4096 * 2) * 4096 * 4096 = 137438953472) by the amount of s to get the FLOPS. Finally divide by 1000000000 to get the amount of GFLOPS.",
                "transform": ["divide_this", 1000, "divide_that", 137438953472, "divide_this", 1000000000]
            }
        ],
        "ylim": [[0,100], [0,350]]
    },
    "xticks": {
        "start": "(",
        "separator": ",",
        "end": ")",
        "rows": [0,1]
    },
    "xticks_rotation": 270,
    "xdata": {
        "row": -1
    },
    "tight": "True",
    "csv": "block_size_x,block_size_y,theoretical_occupancy(%),time(ms)",
    "csv": [
        "16,2,50.0,752.5757853190104",
        "16,4,100.0,665.3712565104166",
        "16,6,98.4375,771.7564493815104",
        "16,8,100.0,610.5954793294271",
        "16,10,93.75,644.0994466145834",
        "16,12,93.75,586.0564575195312",
        "16,14,98.4375,592.6771647135416",
        "16,16,100.0,494.0262858072917",
        "16,18,98.4375,562.9459431966146",
        "16,20,93.75,498.01746622721356",
        "16,22,85.9375,523.5785725911459",
        "16,24,93.75,453.83750406901044",
        "16,26,81.25,476.22386678059894",
        "16,28,87.5,452.2663879394531",
        "16,30,93.75,495.5468241373698",
        "16,32,100.0,448.37591552734375",
        "16,34,79.6875,405.4344991048177",
        "16,36,84.375,405.2469177246094",
        "16,38,89.0625,446.02405802408856",
        "16,40,93.75,408.9497375488281",
        "16,42,98.4375,465.68651326497394",
        "16,44,68.75,407.81223551432294",
        "16,46,71.875,403.9084065755208",
        "16,48,75.0,401.2633056640625",
        "16,50,78.125,404.4980875651042",
        "16,52,81.25,399.1822001139323",
        "16,54,84.375,408.6108093261719",
        "16,56,87.5,399.3675537109375",
        "16,58,90.625,428.48619588216144",
        "16,60,93.75,411.20798746744794",
        "16,62,96.875,426.26064046223956",
        "16,64,100.0,409.3751729329427"
    ]
}
