{
    "title": "Blocked matrix multiplication - Roofline model",
    "xlabel": "Operational intensity (FLOP/Byte)",
    "ylabel": "GFLOPS",
    "type": "roofline",
    "color": ["#1859a9", "#008c47", "#000000", "#b33893"],
    "labels": "One list per label, with the list containing the label, x_offset, y_offset, and rotation",
    "labels": [
        ["Measured global memory bandwidth", 0.1, 0.2, 27],
        ["Measured L1+L2 bandwidth", 0.1, 0.2, 27],
        ["Measured shared memory bandwidth", 0.1, 0.2, 27],
        ["Blocked (worst case)", -0.05, 0.1, 90],
        ["Blocked (best case)", -0.05, 0.1, 90],
        ["Peak Single Precision Performance", -1.95, 0.1, 0]
    ],
    "align": "center",
    "horizontal_lines_major": "True",
    "horizontal_lines_major_style": ":",
    "vertical_lines_major": "True",
    "vertical_lines_major_style": ":",
    "xdata": {
        "row": 0,
        "type": "float"
    },
    "ydata": {
        "row": 1,
        "type": "float"
    },
    "xlim": [0.0625,64],
    "xticks": [0.0625, 0.125, 0.25, 0.5, 1, 2, 4, 8, 16, 32, 64],
    "ylim": [8,8192],
    "yticks": [8, 16, 32, 64, 128, 256, 512, 1024, 2048, 4096, 8192],
    "peak_gflops": 6611,
    "peak_gb_s": [288.536087201415, 1790.40, 2824.44],
    "csv": "operational_intensity(flop/byte),top_result(gflops)",
    "csv": [
        "0.2481594152072675,4604.4",
        "2.306730925434559,4604.4"
    ]
}
