{
    "title": "Tiled matrix multiplication - Auto-tuning thread block size and shared memory tile size (top 25 sorted results)",
    "xlabel": "Configurations (block_size_x,block_size_y,shmem_tile_size)",
    "ylabel": "GFLOPS",
    "type": "bar",
    "color": "#79c36a",
    "align": "center",
    "horizontal_lines_major": "True",
    "horizontal_lines_minor": "True",
    "sort_results": {
        "key": 3,
        "type": "float",
        "reverse": "True"
    },
    "data_filters": [
        {
            "type": "top",
            "amount": 25,
            "end_percent": 100
        }
    ],
    "subplots": {
        "position": [211]
    },
    "xticks": {
        "start": "(",
        "separator": ",",
        "end": ")",
        "rows": [0,1,2]
    },
    "xticks_rotation": 270,
    "xdata": {
        "row": -1
    },
    "ydata": {
        "row": 3,
        "type": "float",
        "transform": "First divide row 3 by 1000 to convert from ms to s, then divide the amount of arithmetic instructions ((4096 * 2) * 4096 * 4096 = 137438953472) by the amount of s to get the FLOPS. Finally divide by 1000000000 to get the amount of GFLOPS.",
        "transform": ["divide_this", 1000, "divide_that", 137438953472, "divide_this", 1000000000]
    },
    "ylim": [700, 800],
    "tight": "True",
    "custom_subplot_config": {"bottom": 0.15},
    "csv": "shmem_tile_size_data.json"
}
