{
    "title": "Tiled matrix multiplication - Performance of all thread block size combinations containing at least one top 25 configuration",
    "xlabel": "Configuration groups  (block_size_x,block_size_y,shmem_tile_size)",
    "ylabel": "GFLOPS",
    "type": "grouped_bar",
    "color": "#79c36a",
    "align": "center",
    "linewidth": 0.5,
    "width": 1.0,
    "horizontal_lines_major": "True",
    "horizontal_lines_minor": "True",
    "data_filters": [
        {
            "type": "config",
            "config": [["8", "32"], ["16", "12"], ["16", "16"], ["16", "18"], ["16", "20"], ["16", "22"], ["16", "24"], ["16", "26"], ["16", "32"], ["18", "16"], ["24", "16"], ["32", "16"]]
        }
    ],
    "subplots": {
        "position": [211]
    },
    "xticks": {
        "identifier_labels": [[8,32], [16,12], [16,16], [16,18], [16,20], [16,22], [16,24], [16,26], [16,32], [18,16], [24,16], [32,16]],
        "labels_appearance": ["(8,32,?)", "(16,12,?)", "(16,16,?)", "(16,18,?)", "(16,20,?)", "(16,22,?)", "(16,24,?)", "(16,26,?)", "(16,32,?)", "(18,16,?)", "(24,16,?)", "(32,16,?)"]
    },
    "xticks_rotation": 270,
    "xdata": {
        "row": [0, 1],
        "type": ["int", "int"]
    },
    "ydata": {
            "row": 3,
            "type": "float",
            "transform": "First divide the time by 1000 to convert from ms to s, then divide the amount of arithmetic instructions ((4096 * 2) * 4096 * 4096 = 137438953472) by the amount of s to get the FLOPS. Finally divide by 1000000000 to get the amount of GFLOPS.",
            "transform": ["divide_this", 1000, "divide_that", 137438953472, "divide_this", 1000000000]
    },
    "ylim": [0, 800],
    "ylabel": "GFLOPS",
    "tight": "True",
    "custom_subplot_config": {"top": 0.925},
    "csv": "block_size_x,block_size_y,time(ms)",
    "csv": "shmem_tile_size_data.json"
}
