{
    "xlabel": "Configurations (block_size_x,block_size_y,shmem_tile_size)",
    "type": "bar",
    "align": "center",
    "horizontal_lines_major": "True",
    "horizontal_lines_minor": "True",
    "sort_results": {
        "key": 3,
        "type": "float",
        "reverse": "True"
    },
    "data_filters": [
        {
            "type": "top",
            "amount": 10,
            "end_percent": 50
        },
        {
            "type": "top",
            "amount": 10,
            "end_percent": 75
        },
        {
            "type": "top",
            "amount": 10,
            "end_percent": 100
        }
    ],
    "hatches": ["/", ".", "\\"],
    "subplots": {
        "position": [221, 222, 223, 224],
        "title": ["Performance", "Number of thread blocks per SM", "Shared memory per block", "Threads block size"],
        "color": ["#79c36a", "#cd7058", "#9e66ab", "#cd7058"],
        "ylabel": ["GFLOPS", "Thread blocks per SM", "Shared memory per block (KiB)", "Threads per block"],
        "ydata": [
            {
                "row": 3,
                "type": "float",
                "transform": "First divide row 3 by 1000 to convert from ms to s, then divide the amount of arithmetic instructions ((4096 * 2) * 4096 * 4096 = 137438953472) by the amount of s to get the FLOPS. Finally divide by 1000000000 to get the amount of GFLOPS.",
                "transform": ["divide_this", 1000, "divide_that", 137438953472, "divide_this", 1000000000]
            },
            {
                "row": 5,
                "type": "int"
            },
            {
                "row": 8,
                "type": "int",
                "transform": "Divide row 3 by 1024 to go from B to KiB",
                "transform": ["divide_this", 1024]
            },
            {
                "row": 0,
                "type": "int",
                "transform": "Multiply row 0 with row 1 to get the threads per block",
                "transform": ["multiply_with_row", 1]
            }
        ],
        "ylim": [[0, 800], [0, 32], [0, 48], [0, 1024]],
        "yticks": [[0, 200, 400, 600, 800], [0, 8, 16, 24, 32], [0, 12, 24, 36, 48], [0, 256, 512, 768, 1024]]
    },
    "xticks": {
        "start": "(",
        "separator": ",",
        "end": ")",
        "rows": [0,1,2]
    },
    "xticks_rotation": 270,
    "xdata": {
        "row": -1
    },
    "tight": "True",
    "custom_subplot_config": {"bottom": 0.15, "hspace": 0.62},
    "csv": "../cuda/results/shmem_tile_size_data.json"
}
