{
    "global_title": "Tiled matrix multiplication - Nvprof metrics of the 3 performance segments",
    "xlabel": "Configurations (block_size_x,block_size_y,shmem_tile_size)",
    "type": "bar",
    "align": "center",
    "horizontal_lines_major": "True",
    "horizontal_lines_minor": "True",
    "sort_results": {
        "key": 3,
        "type": "float",
        "reverse": "True"
    },
    "hatches": ["//", "..", "\\\\"],
    "subplots": {
        "position": [221, 222, 223, 224],
        "title": ["Branch efficiency", "SM efficiency", "Instructions executed", "Barriers executed"],
        "color": ["#d77fb3", "#d77fb3", "#f9a65a", "#f9a65a"],
        "ylabel": ["Branch efficiency (%)", "SM efficiency (%)", "Instructions executed", "Barriers executed"],
        "ydata": [
            {
                "row": 18,
                "type": "float"
            },
            {
                "row": 24,
                "type": "float"
            },
            {
                "row": 20,
                "type": "float"
            },
            {
                "row": 6,
                "type": "int"
            }
        ],
        "ylim": [[0,100], [0,100], [0,20000000000], [0,40000000]]
    },
    "xticks": {
        "start": "(",
        "separator": ",",
        "end": ")",
        "rows": [0,1,2]
    },
    "xticks_rotation": 270,
    "xdata": {
        "row": -1
    },
    "global_legend": {
        "loc": "lower center",
        "use_hatches": "True",
        "row_title": "Performance segments:",
        "ncol": 4,
        "markerfirst": ""
    },
    "tight": "True",
    "custom_subplot_config": {"bottom": 0.21, "top": 0.93, "hspace": 0.7},
    "labels": ["Low", "Medium", "High"],
    "csv": "../cuda/results/shmem_tile_size_data_performance_segments.json"
}
