{
    "global_title": "Tiled matrix multiplication - Shared memory efficiency of the top 25 configurations (sorted by performance)",
    "xlabel": "Configurations (block_size_x,block_size_y,shmem_tile_size)",
    "type": "bar",
    "align": "center",
    "horizontal_lines_major": "True",
    "horizontal_lines_minor": "True",
    "sort_results": {
        "key": 3,
        "type": "float",
        "reverse": "True"
    },
    "data_filters": [
        {
            "type": "top",
            "amount": 25,
            "end_percent": 100
        }
    ],
    "subplots": {
        "position": [221, 222],
        "title": ["Performance", "Shared memory efficiency"],
        "color": ["#79c36a", "#727272"],
        "ylabel": ["GFLOPS", "Efficiency (%)"],
        "ydata": [
            {
                "row": 3,
                "type": "float",
                "transform": "First divide row 3 by 1000 to convert from ms to s, then divide the amount of arithmetic instructions ((4096 * 2) * 4096 * 4096 = 137438953472) by the amount of s to get the FLOPS. Finally divide by 1000000000 to get the amount of GFLOPS.",
                "transform": ["divide_this", 1000, "divide_that", 137438953472, "divide_this", 1000000000]
            },
            {
                "row": 18,
                "type": "float"
            }
        ],
        "ylim": [[700, 800], [0,100]],
        "yticks": [[700, 720, 740, 760, 780, 800], []]
    },
    "xticks": {
        "start": "(",
        "separator": ",",
        "end": ")",
        "rows": [0,1,2]
    },
    "xticks_rotation": 270,
    "xdata": {
        "row": -1
    },
    "tight": "True",
    "custom_subplot_config": {"bottom": 0.15, "top": 0.925},
    "csv": "../cuda/results/shmem_tile_size_data_top_block_size_pairs.json"
}
