{
    "title_x": -0.07,
    "type": "grid",
    "color": "#79c36a",
    "grid": "True",
    "grid_major_step": 512,
    "grid_minor_step": 128,
    "subplots": {
        "position": [224, 223, 222],
        "title": ["C", "A", "B"],
        "widthdata": [
            {
                "row": 0,
                "type": "int"
            },
            {
                "row": 3,
                "type": "int"
            },
            {
                "row": 6,
                "type": "int"
            }
        ],
        "heightdata": [
            {
                "row": 1,
                "type": "int"
            },
            {
                "row": 4,
                "type": "int"
            },
            {
                "row": 7,
                "type": "int"
            }
        ],
        "amountdata": [
            {
                "row": 2,
                "type": "int"
            },
            {
                "row": 5,
                "type": "int"
            },
            {
                "row": 8,
                "type": "int"
            }
        ]
    },
    "xlim": [0,4096],
    "ylim": [4096,0],
    "adjust_custom": [0.19, 0.02, 0.8, 0.97, 0.0, 0.1],
    "csv": "widthC,heightC,amountC,widthA,heightA,amountA,widthB,heightB,amountB",
    "csv": [
        "16,52,2,16,4096,2,16,4096,2"
    ]
}
