{
    "title": "Naive matrix multiplication theoretical row data sharing per block size configuration",
    "xlabel": "Configurations (block_size_x,block_size_y)",
    "ylabel": "Relative row data sharing compared to the best and worst case scenario",
    "type": "bar",
    "color": "#79c36a",
    "align": "center",
    "horizontal_lines_major": "True",
    "xticks": {
        "start": "(",
        "separator": ",",
        "end": ")",
        "rows": [0,1]
    },
    "xticks_rotation": 270,
    "xdata": {
        "row": -1
    },
    "ydata": {
        "row": 2,
        "type": "float",
        "transform": "First subtract the best case scenario fetches from the current fetches, then divide the result by the worst - best case fetches and subtract the resulting number from 1 to turn the scale to worst being 0 and best being 1",
        "transform": ["subtract_this", 524288, "divide_this", 44564480, "subtract_that", 1]
    },
    "tight": "True",
    "csv": "block_size_x,block_size_y,row_memory_fetches",
    "csv": [
        "1,1,3145728",
        "1,2,3145728",
        "1,4,3145728",
        "1,8,3145728",
        "1,16,3145728",
        "1,32,3145728",
        "1,64,3145728",
        "1,128,5767168",
        "1,256,11534336",
        "1,512,22544384",
        "1,1024,45088768",
        "2,1,1572864",
        "2,2,1572864",
        "2,4,1572864",
        "2,8,1572864",
        "2,16,1572864",
        "2,32,1572864",
        "2,64,3145728",
        "2,128,5767168",
        "2,256,11534336",
        "2,512,22544384",
        "4,1,1048576",
        "4,2,1048576",
        "4,4,1048576",
        "4,8,1048576",
        "4,16,1048576",
        "4,32,1572864",
        "4,64,3145728",
        "4,128,5767168",
        "4,256,11534336",
        "8,1,699136",
        "8,2,699136",
        "8,4,699136",
        "8,8,699136",
        "8,16,1048576",
        "8,32,1572864",
        "8,64,3145728",
        "8,128,5767168",
        "16,1,524288",
        "16,2,524288",
        "16,4,524288",
        "16,8,699136",
        "16,16,1048576",
        "16,32,1572864",
        "16,64,3145728",
        "32,1,524288",
        "32,2,524288",
        "32,4,524288",
        "32,8,699136",
        "32,16,1048576",
        "32,32,1572864",
        "64,1,524288",
        "64,2,524288",
        "64,4,524288",
        "64,8,699136",
        "64,16,1048576",
        "128,1,524288",
        "128,2,524288",
        "128,4,524288",
        "128,8,699136",
        "256,1,524288",
        "256,2,524288",
        "256,4,524288",
        "512,1,524288",
        "512,2,524288",
        "1024,1,524288"
    ]
}
