{
    "title": "Naive matrix multiplication theoretical column data sharing per block size configuration",
    "xlabel": "Configurations (block_size_x,block_size_y)",
    "ylabel": "Relative column data sharing compared to the best and worst case scenario",
    "type": "bar",
    "color": "#599ad3",
    "align": "center",
    "horizontal_lines_major": "True",
    "xticks": {
        "start": "(",
        "separator": ",",
        "end": ")",
        "rows": [0,1]
    },
    "xticks_rotation": 270,
    "xdata": {
        "row": -1
    },
    "ydata": {
        "row": 2,
        "type": "float",
        "transform": "First subtract the best case scenario fetches from the current fetches, then divide the result by the worst - best case fetches and subtract the resulting number from 1 to turn the scale to worst being 0 and best being 1",
        "transform": ["subtract_this", 2097152, "divide_this", 2145386496, "subtract_that", 1]
    },
    "tight": "True",
    "csv": "block_size_x,block_size_y,column_memory_fetches",
    "csv": [
        "1,1,2147483648",
        "1,2,1073741824",
        "1,4,536870912",
        "1,8,268435456",
        "1,16,134217728",
        "1,32,67108864",
        "1,64,33554432",
        "1,128,16777216",
        "1,256,8388608",
        "1,512,4194304",
        "1,1024,2097152",
        "2,1,2147483648",
        "2,2,1073741824",
        "2,4,536870912",
        "2,8,268435456",
        "2,16,134217728",
        "2,32,67108864",
        "2,64,33554432",
        "2,128,16777216",
        "2,256,8388608",
        "2,512,4194304",
        "4,1,2147483648",
        "4,2,1073741824",
        "4,4,536870912",
        "4,8,268435456",
        "4,16,134217728",
        "4,32,67108864",
        "4,64,33554432",
        "4,128,16777216",
        "4,256,8388608",
        "8,1,1431830528",
        "8,2,716177408",
        "8,4,358088704",
        "8,8,179306496",
        "8,16,134217728",
        "8,32,67108864",
        "8,64,33554432",
        "8,128,16777216",
        "16,1,716177408",
        "16,2,358088704",
        "16,4,179306496",
        "16,8,179306496",
        "16,16,134217728",
        "16,32,67108864",
        "16,64,33554432",
        "32,1,358088704",
        "32,2,179306496",
        "32,4,179306496",
        "32,8,179306496",
        "32,16,134217728",
        "32,32,67108864",
        "64,1,179306496",
        "64,2,179306496",
        "64,4,179306496",
        "64,8,179306496",
        "64,16,134217728",
        "128,1,179306496",
        "128,2,179306496",
        "128,4,179306496",
        "128,8,179306496",
        "256,1,179306496",
        "256,2,179306496",
        "256,4,179306496",
        "512,1,179306496",
        "512,2,179306496",
        "1024,1,179306496"
    ]
}
