{
    "title": "Naive matrix multiplication - Fill percentage of the last active thread block group (last group sm utilization)",
    "xlabel": "Configurations (block_size_x,block_size_y)",
    "ylabel": "Fill percentage",
    "type": "bar",
    "color": "#79c36a",
    "align": "center",
    "horizontal_lines_major": "True",
    "horizontal_lines_minor": "True",
    "xticks": {
        "start": "(",
        "separator": ",",
        "end": ")",
        "rows": [0,1]
    },
    "xticks_rotation": 270,
    "xdata": {
        "row": -1
    },
    "ydata": {
        "row": 2,
        "type": "float"
    },
    "ylim": [0,100],
    "tight": "True",
    "adjust_wider_higher": "True",
    "csv": "block_size_x,block_size_y,last_active_thread_block_group_fill",
    "csv": [
        "16,2,66.66666666666666",
        "16,4,33.33333333333333",
        "16,6,92.06349206349206",
        "16,8,33.33333333333333",
        "16,10,44.44444444444444",
        "16,12,80.0",
        "16,14,25.925925925925924",
        "16,16,33.33333333333333",
        "16,18,42.857142857142854",
        "16,20,44.44444444444444",
        "16,22,93.33333333333333",
        "16,24,80.0",
        "16,26,33.33333333333333",
        "16,28,0.0",
        "16,30,33.33333333333333",
        "16,32,33.33333333333333",
        "16,34,22.22222222222222",
        "16,36,33.33333333333333",
        "16,38,0.0",
        "16,40,22.22222222222222",
        "16,42,44.44444444444444",
        "16,44,33.33333333333333",
        "16,46,0.0",
        "16,48,66.66666666666666",
        "16,50,33.33333333333333",
        "16,52,33.33333333333333",
        "16,54,33.33333333333333",
        "16,56,66.66666666666666",
        "16,58,66.66666666666666",
        "16,60,0.0",
        "16,62,33.33333333333333",
        "16,64,33.33333333333333"
    ]
}
