{
    "title": "Naive kernel - Auto-tuning results (only block_size_x 16)",
    "xlabel": "Configurations (block_size_x,block_size_y)",
    "ylabel": "GFLOPS",
    "type": "bar",
    "color": "#79c36a",
    "align": "center",
    "horizontal_lines_major": "True",
    "horizontal_lines_minor": "True",
    "subplots": {
        "position": [211]
    },
    "xticks": {
        "start": "(",
        "separator": ",",
        "end": ")",
        "rows": [0,1]
    },
    "xticks_rotation": 270,
    "xdata": {
        "row": -1
    },
    "yticks": [0,200,400],
    "ydata": {
        "row": 2,
        "type": "float",
        "transform": "First divide row 2 by 1000 to convert from ms to s, then divide the amount of arithmetic instructions ((4096 * 2) * 4096 * 4096 = 137438953472) by the amount of s to get the FLOPS. Finally divide by 1000000000 to get the amount of GFLOPS.",
        "transform": ["divide_this", 1000, "divide_that", 137438953472, "divide_this", 1000000000]
    },
    "ylim": [0, 350],
    "tight": "True",
    "custom_subplot_config": {"bottom": 0.11},
    "csv": "block_size_x,block_size_y,time(ms)",
    "csv": [
        "16,2,752.5757853190104",
        "16,4,665.3712565104166",
        "16,6,771.7564493815104",
        "16,8,610.5954793294271",
        "16,10,644.0994466145834",
        "16,12,586.0564575195312",
        "16,14,592.6771647135416",
        "16,16,494.0262858072917",
        "16,18,562.9459431966146",
        "16,20,498.01746622721356",
        "16,22,523.5785725911459",
        "16,24,453.83750406901044",
        "16,26,476.22386678059894",
        "16,28,452.2663879394531",
        "16,30,495.5468241373698",
        "16,32,448.37591552734375",
        "16,34,405.4344991048177",
        "16,36,405.2469177246094",
        "16,38,446.02405802408856",
        "16,40,408.9497375488281",
        "16,42,465.68651326497394",
        "16,44,407.81223551432294",
        "16,46,403.9084065755208",
        "16,48,401.2633056640625",
        "16,50,404.4980875651042",
        "16,52,399.1822001139323",
        "16,54,408.6108093261719",
        "16,56,399.3675537109375",
        "16,58,428.48619588216144",
        "16,60,411.20798746744794",
        "16,62,426.26064046223956",
        "16,64,409.3751729329427"
    ]
}
