{
    "title": "Naive matrix multiplication - Auto-tuning thread block size",
    "xlabel": "block_size_y",
    "ylabel": "GFLOPS",
    "type": "grouped_bar",
    "color": "#79c36a",
    "align": "center",
    "linewidth": 0.5,
    "width": 1.0,
    "horizontal_lines_major": "True",
    "horizontal_lines_minor": "True",
    "xticks": {
        "identifier_labels": [1,2,3,4,5,6,7,8,10,12,14,16,20,24,28,32,40,48,56,64,80,96,112,128,192,256,512,1024]
    },
    "xdata": {
        "row": 0,
        "type": "int"
    },
    "ydata": {
        "row": 2,
        "type": "float",
        "transform": "First divide row 2 by 1000 to convert from ms to s, then divide the amount of arithmetic instructions ((4096 * 2) * 4096 * 4096 = 137438953472) by the amount of s to get the FLOPS. Finally divide by 1000000000 to get the amount of GFLOPS.",
        "transform": ["divide_this", 1000, "divide_that", 137438953472, "divide_this", 1000000000]
    },
    "ylim": [0, 350],
    "tight": "True",
    "adjust_wider_higher": "True",
    "csv": "block_size_y,block_size_x,time(ms)",
    "csv": [
        "1,32,963.3111979166666",
        "1,64,960.7549438476562",
        "1,96,956.1501871744791",
        "1,128,963.2900797526041",
        "1,160,958.5152384440104",
        "1,192,965.7679036458334",
        "1,224,960.1338500976562",
        "1,256,968.1833292643229",
        "1,288,960.6179402669271",
        "1,320,963.8109334309896",
        "1,352,965.9552205403646",
        "1,384,968.9988810221354",
        "1,416,964.1703694661459",
        "1,448,968.3760782877604",
        "1,480,962.5898640950521",
        "1,512,966.9766438802084",
        "1,544,968.7295735677084",
        "1,576,971.0305379231771",
        "1,608,963.0898640950521",
        "1,640,969.8126220703125",
        "1,672,962.0490112304688",
        "1,704,968.722900390625",
        "1,736,966.0087687174479",
        "1,768,977.517822265625",
        "1,800,970.1819051106771",
        "1,832,968.8126831054688",
        "1,864,965.1457112630209",
        "1,896,970.2008260091146",
        "1,928,965.3782755533854",
        "1,960,967.0213012695312",
        "1,992,962.7056477864584",
        "1,1024,966.8526000976562",
        "2,16,752.5757853190104",
        "2,32,769.4446207682291",
        "2,48,970.4674072265625",
        "2,64,901.0753580729166",
        "2,80,967.6389973958334",
        "2,96,917.0731608072916",
        "2,112,905.0574747721354",
        "2,128,759.0458374023438",
        "2,144,884.5958658854166",
        "2,160,914.8857828776041",
        "2,176,961.8282063802084",
        "2,192,928.2005818684896",
        "2,208,960.5209147135416",
        "2,224,924.9999593098959",
        "2,240,936.2098388671875",
        "2,256,811.9128824869791",
        "2,272,941.11376953125",
        "2,288,925.4473673502604",
        "2,304,964.9184366861979",
        "2,320,940.5216878255209",
        "2,336,961.7642211914062",
        "2,352,887.2698364257812",
        "2,368,942.0724894205729",
        "2,384,917.2162679036459",
        "2,400,952.4063924153646",
        "2,416,929.9944661458334",
        "2,432,958.4197998046875",
        "2,448,933.6739095052084",
        "2,464,963.1466267903646",
        "2,480,937.7803955078125",
        "2,496,944.5250651041666",
        "2,512,948.1302286783854",
        "3,32,901.1717122395834",
        "3,64,841.7316487630209",
        "3,96,918.0261637369791",
        "3,128,668.5693766276041",
        "3,160,911.4784342447916",
        "3,192,880.7939860026041",
        "3,224,906.5718180338541",
        "3,256,909.174560546875",
        "3,288,893.7500813802084",
        "3,320,905.6819864908854",
        "4,8,818.7303059895834",
        "4,16,665.3712565104166",
        "4,24,846.2933146158854",
        "4,32,681.0501098632812",
        "4,40,908.72314453125",
        "4,48,867.0096232096354",
        "4,56,918.1825968424479",
        "4,64,781.2156168619791",
        "4,72,949.6092325846354",
        "4,80,835.9270222981771",
        "4,88,939.0161539713541",
        "4,96,734.5306193033854",
        "4,104,916.1217854817709",
        "4,112,814.2088623046875",
        "4,120,850.0359090169271",
        "4,128,648.7078857421875",
        "4,136,863.740966796875",
        "4,144,817.1148274739584",
        "4,152,886.8587239583334",
        "4,160,787.8827311197916",
        "4,168,957.1998291015625",
        "4,176,726.0855916341146",
        "4,184,898.658935546875",
        "4,192,789.3069254557291",
        "4,200,908.7779134114584",
        "4,208,900.2717488606771",
        "4,216,936.6663818359375",
        "4,224,851.7036336263021",
        "4,232,946.3184611002604",
        "4,240,898.4784952799479",
        "4,248,920.8384806315104",
        "4,256,885.9089965820312",
        "5,32,714.5211385091146",
        "5,64,706.0090128580729",
        "5,96,820.1173095703125",
        "5,128,623.1531168619791",
        "5,160,748.7026163736979",
        "5,192,821.0105794270834",
        "6,16,771.7564493815104",
        "6,32,649.6668090820312",
        "6,48,803.17138671875",
        "6,64,672.9260457356771",
        "6,80,830.9023030598959",
        "6,96,745.2327473958334",
        "6,112,829.8165486653646",
        "6,128,723.3800252278646",
        "6,144,803.541259765625",
        "6,160,794.6473592122396",
        "7,32,669.4359334309896",
        "7,64,646.7889811197916",
        "7,96,768.4806315104166",
        "7,128,729.8368733723959",
        "8,4,993.0770874023438",
        "8,8,778.93212890625",
        "8,12,838.8043009440104",
        "8,16,610.5954793294271",
        "8,20,701.8603108723959",
        "8,24,658.12744140625",
        "8,28,737.7135620117188",
        "8,32,559.4905395507812",
        "8,36,795.2768961588541",
        "8,40,735.2225748697916",
        "8,44,871.7774658203125",
        "8,48,643.839111328125",
        "8,52,916.5123697916666",
        "8,56,763.1282145182291",
        "8,60,850.8349812825521",
        "8,64,652.3100179036459",
        "8,68,872.9434611002604",
        "8,72,793.4293009440104",
        "8,76,811.8557942708334",
        "8,80,708.9556477864584",
        "8,84,913.1602986653646",
        "8,88,589.7822672526041",
        "8,92,773.6916097005209",
        "8,96,586.6474609375",
        "8,100,850.7105712890625",
        "8,104,821.6564127604166",
        "8,108,900.590087890625",
        "8,112,764.2108154296875",
        "8,116,903.7924601236979",
        "8,120,809.6484171549479",
        "8,124,884.9382731119791",
        "8,128,732.8912963867188",
        "9,32,630.2061157226562",
        "9,64,613.2021891276041",
        "9,96,707.0483194986979",
        "10,16,644.0994466145834",
        "10,32,568.7770589192709",
        "10,48,702.54736328125",
        "10,64,614.6244913736979",
        "10,80,724.8981730143229",
        "10,96,685.8165893554688",
        "11,32,598.1783243815104",
        "11,64,531.6451619466146",
        "12,8,842.1151936848959",
        "12,16,586.0564575195312",
        "12,24,644.2050577799479",
        "12,32,528.3114827473959",
        "12,40,723.7345581054688",
        "12,48,661.7610473632812",
        "12,56,780.6169637044271",
        "12,64,530.0132039388021",
        "12,72,788.8744506835938",
        "12,80,731.8129069010416",
        "13,32,587.0245971679688",
        "13,64,577.475830078125",
        "14,16,592.6771647135416",
        "14,32,533.5376993815104",
        "14,48,683.2173055013021",
        "14,64,572.7188924153646",
        "15,32,555.8557535807291",
        "15,64,596.8249308268229",
        "16,2,1688.0692138671875",
        "16,4,994.9325968424479",
        "16,6,947.6842651367188",
        "16,8,634.6757609049479",
        "16,10,730.1155192057291",
        "16,12,655.8087361653646",
        "16,14,685.7003580729166",
        "16,16,494.0262858072917",
        "16,18,654.6693115234375",
        "16,20,611.9408365885416",
        "16,22,652.0787150065104",
        "16,24,545.0694173177084",
        "16,26,683.3284708658854",
        "16,28,628.1619059244791",
        "16,30,688.7431437174479",
        "16,32,521.1309611002604",
        "16,34,708.8801472981771",
        "16,36,696.5730387369791",
        "16,38,739.0391845703125",
        "16,40,642.7748413085938",
        "16,42,778.413330078125",
        "16,44,676.7035319010416",
        "16,46,715.4670206705729",
        "16,48,548.3162231445312",
        "16,50,717.0380859375",
        "16,52,715.7719319661459",
        "16,54,806.7659301757812",
        "16,56,696.421630859375",
        "16,58,800.422607421875",
        "16,60,784.3749389648438",
        "16,62,852.8780924479166",
        "16,64,558.1326293945312",
        "17,32,525.3770751953125",
        "18,16,562.9459431966146",
        "18,32,519.9883626302084",
        "18,48,643.0447387695312",
        "19,32,527.2656860351562",
        "20,8,698.6846516927084",
        "20,16,498.01746622721356",
        "20,24,590.1741943359375",
        "20,32,513.5374755859375",
        "20,40,595.5732014973959",
        "20,48,626.3801879882812",
        "21,32,532.4857584635416",
        "22,16,523.5785725911459",
        "22,32,526.3077799479166",
        "23,32,519.3965250651041",
        "24,4,956.7263793945312",
        "24,8,618.3835856119791",
        "24,12,635.1702880859375",
        "24,16,453.83750406901044",
        "24,20,593.9577840169271",
        "24,24,530.4102172851562",
        "24,28,634.196044921875",
        "24,32,513.8112996419271",
        "24,36,679.0115559895834",
        "24,40,647.9778035481771",
        "25,32,513.7772013346354",
        "26,16,476.22386678059894",
        "26,32,510.086669921875",
        "27,32,510.70513916015625",
        "28,8,657.4797770182291",
        "28,16,452.2663879394531",
        "28,24,568.4768880208334",
        "28,32,509.2627868652344",
        "29,32,514.3759765625",
        "30,16,495.5468241373698",
        "30,32,510.83997599283856",
        "31,32,511.57582600911456",
        "32,1,3266.7958170572915",
        "32,2,1674.92822265625",
        "32,3,1255.7480061848958",
        "32,4,915.1766764322916",
        "32,5,885.6405843098959",
        "32,6,736.5427042643229",
        "32,7,729.4758911132812",
        "32,8,534.17333984375",
        "32,9,660.232666015625",
        "32,10,618.2518107096354",
        "32,11,645.7679239908854",
        "32,12,527.9026082356771",
        "32,13,602.8108723958334",
        "32,14,578.9453735351562",
        "32,15,627.7083129882812",
        "32,16,448.37591552734375",
        "32,17,594.1787923177084",
        "32,18,575.5066731770834",
        "32,19,600.2231648763021",
        "32,20,551.559814453125",
        "32,21,628.4039103190104",
        "32,22,624.7461751302084",
        "32,23,635.8038940429688",
        "32,24,512.378662109375",
        "32,25,634.7314249674479",
        "32,26,623.4142252604166",
        "32,27,645.2221476236979",
        "32,28,604.6133219401041",
        "32,29,668.1359659830729",
        "32,30,660.9993082682291",
        "32,31,688.4750773111979",
        "32,32,510.4938557942708",
        "34,16,405.4344991048177",
        "36,8,575.1273193359375",
        "36,16,405.2469177246094",
        "36,24,519.625732421875",
        "38,16,446.02405802408856",
        "40,4,874.3973185221354",
        "40,8,529.9116007486979",
        "40,12,577.1545613606771",
        "40,16,408.9497375488281",
        "40,20,546.1927286783854",
        "40,24,509.4782002766927",
        "42,16,465.68651326497394",
        "44,8,518.6526285807291",
        "44,16,407.81223551432294",
        "46,16,403.9084065755208",
        "48,2,1628.3410237630208",
        "48,4,878.3763427734375",
        "48,6,729.4609375",
        "48,8,518.92724609375",
        "48,10,627.2779337565104",
        "48,12,526.1221516927084",
        "48,14,585.6655069986979",
        "48,16,401.2633056640625",
        "48,18,559.7974853515625",
        "48,20,538.7370402018229",
        "50,16,404.4980875651042",
        "52,8,506.84503173828125",
        "52,16,399.1822001139323",
        "54,16,408.6108093261719",
        "56,4,885.9081217447916",
        "56,8,524.136474609375",
        "56,12,561.8070271809896",
        "56,16,399.3675537109375",
        "58,16,428.48619588216144",
        "60,8,566.9507039388021",
        "60,16,411.20798746744794",
        "62,16,426.26064046223956",
        "64,1,3181.132080078125",
        "64,2,1607.4112548828125",
        "64,3,1198.1845296223958",
        "64,4,916.3123779296875",
        "64,5,850.1109212239584",
        "64,6,736.5592447916666",
        "64,7,706.4619344075521",
        "64,8,556.5184326171875",
        "64,9,634.7644246419271",
        "64,10,598.6428629557291",
        "64,11,603.8190104166666",
        "64,12,539.9971110026041",
        "64,13,582.7259521484375",
        "64,14,564.6528116861979",
        "64,15,580.3574422200521",
        "64,16,409.3751729329427",
        "68,8,567.008544921875",
        "72,4,966.48388671875",
        "72,8,588.5369669596354",
        "72,12,586.5293172200521",
        "76,8,630.3622029622396",
        "80,2,1627.6050618489583",
        "80,4,1018.6272989908854",
        "80,6,801.629638671875",
        "80,8,625.6644694010416",
        "80,10,624.6936238606771",
        "80,12,609.2093098958334",
        "84,8,658.7962239583334",
        "88,4,1045.66064453125",
        "88,8,591.5138549804688",
        "92,8,631.5582885742188",
        "96,1,3180.2303873697915",
        "96,2,1630.4673665364583",
        "96,3,1211.65234375",
        "96,4,1083.8448079427083",
        "96,5,930.9839477539062",
        "96,6,886.5073445638021",
        "96,7,836.8127644856771",
        "96,8,646.8542277018229",
        "96,9,752.3307902018229",
        "96,10,708.5895792643229",
        "100,8,669.5728556315104",
        "104,4,1106.4130045572917",
        "104,8,691.8884684244791",
        "108,8,726.2444661458334",
        "112,2,1613.8983968098958",
        "112,4,1145.3657633463542",
        "112,6,964.1857503255209",
        "112,8,711.43701171875",
        "116,8,746.3277384440104",
        "120,4,1164.5676676432292",
        "120,8,723.9838256835938",
        "124,8,752.6400553385416",
        "128,1,3159.8680826822915",
        "128,2,1604.3965250651042",
        "128,3,1281.7224527994792",
        "128,4,1183.0396728515625",
        "128,5,1066.0070393880208",
        "128,6,992.0969034830729",
        "128,7,944.1980387369791",
        "128,8,741.0548299153646",
        "136,4,1202.0924479166667",
        "144,2,1615.901123046875",
        "144,4,1220.8948974609375",
        "144,6,1055.6304524739583",
        "152,4,1240.1684977213542",
        "160,1,3184.0455729166665",
        "160,2,1631.73046875",
        "160,3,1386.7729899088542",
        "160,4,1242.30078125",
        "160,5,1153.3359375",
        "160,6,1066.0978190104167",
        "168,4,1255.2489420572917",
        "176,2,1623.5872802734375",
        "176,4,1247.2746988932292",
        "184,4,1258.1548665364583",
        "192,1,3179.3199055989585",
        "192,2,1619.4418131510417",
        "192,3,1462.3294270833333",
        "192,4,1273.6348876953125",
        "192,5,1183.95458984375",
        "200,4,1307.887939453125",
        "208,2,1641.9941813151042",
        "208,4,1298.3094075520833",
        "216,4,1320.3489583333333",
        "224,1,3251.9739583333335",
        "224,2,1656.0813395182292",
        "224,3,1517.74609375",
        "224,4,1308.3107503255208",
        "232,4,1329.5976969401042",
        "240,2,1661.6222737630208",
        "240,4,1317.1199137369792",
        "248,4,1331.2736409505208",
        "256,1,3279.7985026041665",
        "256,2,1683.6841634114583",
        "256,3,1549.2276611328125",
        "256,4,1332.170654296875",
        "272,2,1657.1562093098958",
        "288,1,3347.6161295572915",
        "288,2,1683.5405680338542",
        "288,3,1591.68896484375",
        "304,2,1699.6133219401042",
        "320,1,3365.8645833333335",
        "320,2,1704.8899332682292",
        "320,3,1601.22705078125",
        "336,2,1733.3304850260417",
        "352,1,3399.694091796875",
        "352,2,1641.1879475911458",
        "368,2,1665.2865397135417",
        "384,1,3411.2840983072915",
        "384,2,1667.7431640625",
        "400,2,1714.758544921875",
        "416,1,3474.9989420572915",
        "416,2,1715.8939615885417",
        "432,2,1735.6725667317708",
        "448,1,3587.0199381510415",
        "448,2,1738.5912272135417",
        "464,2,1757.5453694661458",
        "480,1,3670.9507649739585",
        "480,2,1776.8379720052083",
        "496,2,1783.8123779296875",
        "512,1,3642.8645833333335",
        "512,2,1795.6787923177083",
        "544,1,3656.7871907552085",
        "576,1,3786.0777180989585",
        "608,1,3713.78857421875",
        "640,1,3802.9401041666665",
        "672,1,3943.1368001302085",
        "704,1,3746.1680501302085",
        "736,1,3756.715087890625",
        "768,1,3943.8174641927085",
        "800,1,4078.7333984375",
        "832,1,4192.796223958333",
        "864,1,4177.79833984375",
        "896,1,4233.500325520833",
        "928,1,4277.660319010417",
        "960,1,4385.373372395833",
        "992,1,4481.58251953125",
        "1024,1,4551.135416666667"
    ]
}
