{
    "title": "Naive matrix multiplication - Auto-tuning thread block size L1 requests",
    "xlabel": "block_size_x",
    "ylabel": "L1 requests",
    "type": "grouped_bar",
    "color": "#599ad3",
    "align": "center",
    "linewidth": 0.5,
    "width": 1.0,
    "horizontal_lines_major": "True",
    "horizontal_lines_minor": "True",
    "subplots": {
        "position": [211]
    },
    "xticks": {
        "identifier_labels": [1,2,3,4,5,6,7,8,10,12,14,16,20,24,28,32,40,48,56,64,80,96,112,128,192,256,512,1024]
    },
    "xdata": {
        "row": 0,
        "type": "int"
    },
    "ydata": {
        "row": 2,
        "type": "int"
    },
    "ylim": [0,18000000000],
    "tight": "True",
    "csv": "block_size_x,block_size_y,tex_cache_transactions",
    "csv": [
        "1,32,17180000000",
        "1,64,17180000000",
        "1,96,17180000000",
        "1,128,17180000000",
        "1,160,17180000000",
        "1,192,17180000000",
        "1,224,17180000000",
        "1,256,17180000000",
        "1,288,17180000000",
        "1,320,17180000000",
        "1,352,17180000000",
        "1,384,17180000000",
        "1,416,17180000000",
        "1,448,17180000000",
        "1,480,17180000000",
        "1,512,17180000000",
        "1,544,17180000000",
        "1,576,17180000000",
        "1,608,17180000000",
        "1,640,17180000000",
        "1,672,17180000000",
        "1,704,17180000000",
        "1,736,17180000000",
        "1,768,17180000000",
        "1,800,17180000000",
        "1,832,17180000000",
        "1,864,17180000000",
        "1,896,17180000000",
        "1,928,17180000000",
        "1,960,17180000000",
        "1,992,17180000000",
        "1,1024,17180000000",
        "2,16,17180000000",
        "2,32,17180000000",
        "2,48,17180000000",
        "2,64,17180000000",
        "2,80,17180000000",
        "2,96,17180000000",
        "2,112,17180000000",
        "2,128,17180000000",
        "2,144,17180000000",
        "2,160,17180000000",
        "2,176,17180000000",
        "2,192,17180000000",
        "2,208,17180000000",
        "2,224,17180000000",
        "2,240,17180000000",
        "2,256,17180000000",
        "2,272,17180000000",
        "2,288,17180000000",
        "2,304,17180000000",
        "2,320,17180000000",
        "2,336,17180000000",
        "2,352,17180000000",
        "2,368,17180000000",
        "2,384,17180000000",
        "2,400,17180000000",
        "2,416,17180000000",
        "2,432,17180000000",
        "2,448,17180000000",
        "2,464,17180000000",
        "2,480,17180000000",
        "2,496,17180000000",
        "2,512,17180000000",
        "3,32,17188000000",
        "3,64,17188000000",
        "3,96,17188000000",
        "3,128,17188000000",
        "3,160,17188000000",
        "3,192,17188000000",
        "3,224,17188000000",
        "3,256,17188000000",
        "3,288,17188000000",
        "3,320,17188000000",
        "4,8,17180000000",
        "4,16,17180000000",
        "4,24,17180000000",
        "4,32,17180000000",
        "4,40,17180000000",
        "4,48,17180000000",
        "4,56,17180000000",
        "4,64,17180000000",
        "4,72,17180000000",
        "4,80,17180000000",
        "4,88,17180000000",
        "4,96,17180000000",
        "4,104,17180000000",
        "4,112,17180000000",
        "4,120,17180000000",
        "4,128,17180000000",
        "4,136,17180000000",
        "4,144,17180000000",
        "4,152,17180000000",
        "4,160,17180000000",
        "4,168,17180000000",
        "4,176,17180000000",
        "4,184,17180000000",
        "4,192,17180000000",
        "4,200,17180000000",
        "4,208,17180000000",
        "4,216,17180000000",
        "4,224,17180000000",
        "4,232,17180000000",
        "4,240,17180000000",
        "4,248,17180000000",
        "4,256,17180000000",
        "5,32,17197000000",
        "5,64,17197000000",
        "5,96,17197000000",
        "5,128,17197000000",
        "5,160,17197000000",
        "5,192,17197000000",
        "6,16,17188000000",
        "6,32,17188000000",
        "6,48,17188000000",
        "6,64,17188000000",
        "6,80,17188000000",
        "6,96,17188000000",
        "6,112,17188000000",
        "6,128,17188000000",
        "6,144,17188000000",
        "6,160,17188000000",
        "7,32,17197000000",
        "7,64,17197000000",
        "7,96,17197000000",
        "7,128,17197000000",
        "8,4,17180000000",
        "8,8,17180000000",
        "8,12,17180000000",
        "8,16,17180000000",
        "8,20,17180000000",
        "8,24,17180000000",
        "8,28,17180000000",
        "8,32,17180000000",
        "8,36,17180000000",
        "8,40,17180000000",
        "8,44,17180000000",
        "8,48,17180000000",
        "8,52,17180000000",
        "8,56,17180000000",
        "8,60,17180000000",
        "8,64,17180000000",
        "8,68,17180000000",
        "8,72,17180000000",
        "8,76,17180000000",
        "8,80,17180000000",
        "8,84,17180000000",
        "8,88,17180000000",
        "8,92,17180000000",
        "8,96,17180000000",
        "8,100,17180000000",
        "8,104,17180000000",
        "8,108,17180000000",
        "8,112,17180000000",
        "8,116,17180000000",
        "8,120,17180000000",
        "8,124,17180000000",
        "8,128,17180000000",
        "9,32,17197000000",
        "9,64,17197000000",
        "9,96,17197000000",
        "10,16,17197000000",
        "10,32,17197000000",
        "10,48,17197000000",
        "10,64,17197000000",
        "10,80,17197000000",
        "10,96,17197000000",
        "11,32,17205000000",
        "11,64,17205000000",
        "12,8,17197000000",
        "12,16,17197000000",
        "12,24,17197000000",
        "12,32,17197000000",
        "12,40,17197000000",
        "12,48,17197000000",
        "12,56,17197000000",
        "12,64,17197000000",
        "12,72,17197000000",
        "12,80,17197000000",
        "13,32,17209000000",
        "13,64,17209000000",
        "14,16,17205000000",
        "14,32,17205000000",
        "14,48,17205000000",
        "14,64,17205000000",
        "15,32,17209000000",
        "15,64,17209000000",
        "16,2,17180000000",
        "16,4,17180000000",
        "16,6,17180000000",
        "16,8,17180000000",
        "16,10,17180000000",
        "16,12,17180000000",
        "16,14,17180000000",
        "16,16,17180000000",
        "16,18,17180000000",
        "16,20,17180000000",
        "16,22,17180000000",
        "16,24,17180000000",
        "16,26,17180000000",
        "16,28,17180000000",
        "16,30,17180000000",
        "16,32,17180000000",
        "16,34,17180000000",
        "16,36,17180000000",
        "16,38,17180000000",
        "16,40,17180000000",
        "16,42,17180000000",
        "16,44,17180000000",
        "16,46,17180000000",
        "16,48,17180000000",
        "16,50,17180000000",
        "16,52,17180000000",
        "16,54,17180000000",
        "16,56,17180000000",
        "16,58,17180000000",
        "16,60,17180000000",
        "16,62,17180000000",
        "16,64,17180000000",
        "17,32,17184000000",
        "18,16,17213000000",
        "18,32,17213000000",
        "18,48,17213000000",
        "19,32,17213000000",
        "20,8,17197000000",
        "20,16,17197000000",
        "20,24,17197000000",
        "20,32,17197000000",
        "20,40,17197000000",
        "20,48,17197000000",
        "21,32,17209000000",
        "22,16,17213000000",
        "22,32,17213000000",
        "23,32,17213000000",
        "24,4,17213000000",
        "24,8,17213000000",
        "24,12,17213000000",
        "24,16,17213000000",
        "24,20,17213000000",
        "24,24,17213000000",
        "24,28,17213000000",
        "24,32,17213000000",
        "24,36,17213000000",
        "24,40,17213000000",
        "25,32,17197000000",
        "26,16,17222000000",
        "26,32,17222000000",
        "27,32,17213000000",
        "28,8,17213000000",
        "28,16,17213000000",
        "28,24,17213000000",
        "28,32,17213000000",
        "29,32,17226000000",
        "30,16,17222000000",
        "30,32,17222000000",
        "31,32,17222000000",
        "32,1,17180000000",
        "32,2,17180000000",
        "32,3,17180000000",
        "32,4,17180000000",
        "32,5,17180000000",
        "32,6,17180000000",
        "32,7,17180000000",
        "32,8,17180000000",
        "32,9,17180000000",
        "32,10,17180000000",
        "32,11,17180000000",
        "32,12,17180000000",
        "32,13,17180000000",
        "32,14,17180000000",
        "32,15,17180000000",
        "32,16,17180000000",
        "32,17,17180000000",
        "32,18,17180000000",
        "32,19,17180000000",
        "32,20,17180000000",
        "32,21,17180000000",
        "32,22,17180000000",
        "32,23,17180000000",
        "32,24,17180000000",
        "32,25,17180000000",
        "32,26,17180000000",
        "32,27,17180000000",
        "32,28,17180000000",
        "32,29,17180000000",
        "32,30,17180000000",
        "32,31,17180000000",
        "32,32,17180000000",
        "34,16,17222000000",
        "36,8,17213000000",
        "36,16,17213000000",
        "36,24,17213000000",
        "38,16,17213000000",
        "40,4,17213000000",
        "40,8,17213000000",
        "40,12,17213000000",
        "40,16,17213000000",
        "40,20,17213000000",
        "40,24,17213000000",
        "42,16,17222000000",
        "44,8,17197000000",
        "44,16,17197000000",
        "46,16,17205000000",
        "48,2,17180000000",
        "48,4,17180000000",
        "48,6,17180000000",
        "48,8,17180000000",
        "48,10,17180000000",
        "48,12,17180000000",
        "48,14,17180000000",
        "48,16,17180000000",
        "48,18,17180000000",
        "48,20,17180000000",
        "50,16,17197000000",
        "52,8,17213000000",
        "52,16,17213000000",
        "54,16,17213000000",
        "56,4,17213000000",
        "56,8,17213000000",
        "56,12,17213000000",
        "56,16,17213000000",
        "58,16,17222000000",
        "60,8,17213000000",
        "60,16,17213000000",
        "62,16,17213000000",
        "64,1,17180000000",
        "64,2,17180000000",
        "64,3,17180000000",
        "64,4,17180000000",
        "64,5,17180000000",
        "64,6,17180000000",
        "64,7,17180000000",
        "64,8,17180000000",
        "64,9,17180000000",
        "64,10,17180000000",
        "64,11,17180000000",
        "64,12,17180000000",
        "64,13,17180000000",
        "64,14,17180000000",
        "64,15,17180000000",
        "64,16,17180000000",
        "68,8,17213000000",
        "72,4,17213000000",
        "72,8,17213000000",
        "72,12,17213000000",
        "76,8,17213000000",
        "80,2,17180000000",
        "80,4,17180000000",
        "80,6,17180000000",
        "80,8,17180000000",
        "80,10,17180000000",
        "80,12,17180000000",
        "84,8,17213000000",
        "88,4,17213000000",
        "88,8,17213000000",
        "92,8,17213000000",
        "96,1,17180000000",
        "96,2,17180000000",
        "96,3,17180000000",
        "96,4,17180000000",
        "96,5,17180000000",
        "96,6,17180000000",
        "96,7,17180000000",
        "96,8,17180000000",
        "96,9,17180000000",
        "96,10,17180000000",
        "100,8,17197000000",
        "104,4,17213000000",
        "104,8,17213000000",
        "108,8,17213000000",
        "112,2,17180000000",
        "112,4,17180000000",
        "112,6,17180000000",
        "112,8,17180000000",
        "116,8,17213000000",
        "120,4,17213000000",
        "120,8,17213000000",
        "124,8,17197000000",
        "128,1,17180000000",
        "128,2,17180000000",
        "128,3,17180000000",
        "128,4,17180000000",
        "128,5,17180000000",
        "128,6,17180000000",
        "128,7,17180000000",
        "128,8,17180000000",
        "136,4,17213000000",
        "144,2,17180000000",
        "144,4,17180000000",
        "144,6,17180000000",
        "152,4,17213000000",
        "160,1,17180000000",
        "160,2,17180000000",
        "160,3,17180000000",
        "160,4,17180000000",
        "160,5,17180000000",
        "160,6,17180000000",
        "168,4,17213000000",
        "176,2,17180000000",
        "176,4,17180000000",
        "184,4,17213000000",
        "192,1,17180000000",
        "192,2,17180000000",
        "192,3,17180000000",
        "192,4,17180000000",
        "192,5,17180000000",
        "200,4,17213000000",
        "208,2,17180000000",
        "208,4,17180000000",
        "216,4,17213000000",
        "224,1,17180000000",
        "224,2,17180000000",
        "224,3,17180000000",
        "224,4,17180000000",
        "232,4,17213000000",
        "240,2,17180000000",
        "240,4,17180000000",
        "248,4,17213000000",
        "256,1,17180000000",
        "256,2,17180000000",
        "256,3,17180000000",
        "256,4,17180000000",
        "272,2,17180000000",
        "288,1,17180000000",
        "288,2,17180000000",
        "288,3,17180000000",
        "304,2,17180000000",
        "320,1,17180000000",
        "320,2,17180000000",
        "320,3,17180000000",
        "336,2,17180000000",
        "352,1,17180000000",
        "352,2,17180000000",
        "368,2,17180000000",
        "384,1,17180000000",
        "384,2,17180000000",
        "400,2,17180000000",
        "416,1,17180000000",
        "416,2,17180000000",
        "432,2,17180000000",
        "448,1,17180000000",
        "448,2,17180000000",
        "464,2,17180000000",
        "480,1,17180000000",
        "480,2,17180000000",
        "496,2,17180000000",
        "512,1,17180000000",
        "512,2,17180000000",
        "544,1,17180000000",
        "576,1,17180000000",
        "608,1,17180000000",
        "640,1,17180000000",
        "672,1,17180000000",
        "704,1,17180000000",
        "736,1,17180000000",
        "768,1,17180000000",
        "800,1,17180000000",
        "832,1,17180000000",
        "864,1,17180000000",
        "896,1,17180000000",
        "928,1,17180000000",
        "960,1,17180000000",
        "992,1,17180000000",
        "1024,1,17180000000"
    ]
}
