{
    "title": "Naive matrix multiplication row only access - relative score for auto tuning block size",
    "xlabel": "Configurations (block_size_x,block_size_y)",
    "ylabel": "Relative GFLOPS with 0 as the worst GFLOPS and 1 as the best GFLOPS",
    "type": "bar",
    "color": "#79c36a",
    "align": "center",
    "horizontal_lines_major": "True",
    "xticks": {
        "start": "(",
        "separator": ",",
        "end": ")",
        "rows": [0,1]
    },
    "xticks_rotation": 270,
    "xdata": {
        "row": -1
    },
    "ydata": {
        "row": 2,
        "type": "float",
        "transform": "First divide row 2 by 1000 to convert from ms to s, then divide the amount of instructions ((4096 * 2 + 1) * 4096 * 4096 = 137455730688) by the amount of s to get the FLOPS. Finally divide by 1000000000 to get the amount of GFLOPS. Then subtract the lowest amount of GFLOPS and divide by the (highest - lowest) GFLOPS to get the relative score.",
        "transform": ["divide_this", 1000, "divide_that", 137455730688, "divide_this", 1000000000, "subtract_this", 5.5070490246759425, "divide_this", 425.29133001669703]
    },
    "tight": "True",
    "csv": "block_size_x,block_size_y,time(ms)",
    "csv": [
        "1,1,9955.50546875",
        "1,2,7173.970703125",
        "1,4,7044.3982421875",
        "1,8,6319.85390625",
        "1,16,6310.13603515625",
        "1,32,6528.8728515625",
        "1,64,6231.9748046875",
        "1,128,6347.2291015625",
        "1,256,10359.3056640625",
        "1,512,15824.766796875",
        "1,1024,24959.961328125",
        "2,1,5080.54580078125",
        "2,2,3681.565234375",
        "2,4,3543.185400390625",
        "2,8,3198.457177734375",
        "2,16,3174.413671875",
        "2,32,3161.0720703125",
        "2,64,3038.80302734375",
        "2,128,3073.279443359375",
        "2,256,3175.256005859375",
        "2,512,3496.377685546875",
        "4,1,2561.24638671875",
        "4,2,1927.33564453125",
        "4,4,1779.305419921875",
        "4,8,1630.7888427734374",
        "4,16,1594.2783203125",
        "4,32,1594.1120361328126",
        "4,64,1646.2766845703125",
        "4,128,2096.805712890625",
        "4,256,2384.272119140625",
        "8,1,1290.281494140625",
        "8,2,1010.9978515625",
        "8,4,902.10751953125",
        "8,8,821.2730590820313",
        "8,16,795.1995849609375",
        "8,32,809.011572265625",
        "8,64,791.6126831054687",
        "8,128,1010.7910766601562",
        "16,1,649.5038208007812",
        "16,2,521.3118041992187",
        "16,4,454.65643310546875",
        "16,8,417.0767883300781",
        "16,16,408.78564453125",
        "16,32,423.644921875",
        "16,64,410.2910095214844",
        "32,1,351.014697265625",
        "32,2,321.3249084472656",
        "32,4,319.8566589355469",
        "32,8,319.30797119140624",
        "32,16,319.0720703125",
        "32,32,319.40341796875",
        "64,1,322.0180419921875",
        "64,2,324.0685241699219",
        "64,4,320.03635864257814",
        "64,8,319.22832641601565",
        "64,16,319.3952209472656",
        "128,1,326.0196960449219",
        "128,2,334.45191650390626",
        "128,4,320.7275390625",
        "128,8,319.6855163574219",
        "256,1,337.6722900390625",
        "256,2,338.01947021484375",
        "256,4,323.50775146484375",
        "512,1,337.608544921875",
        "512,2,336.733544921875",
        "1024,1,340.45289306640626"
    ]
}
